// memory data file (do not edit the following line - required for mem load use)
// instance=/fft_top_tb/dut/fft_inst/BUTTERFLY[2]/b/genblk1/twiddle/W
// format=bin addressradix=h dataradix=b version=1.0 wordsperline=1 noaddress
011111111000000000
000000000100000000
